<mxfile host="app.diagrams.net" modified="2023-10-16T02:19:35.337Z" agent="Mozilla/5.0 (Windows NT 10.0; Win64; x64; rv:109.0) Gecko/20100101 Firefox/118.0" etag="JPVZhxBrYzoRK9BswnKm" version="21.6.2" type="gitlab">
  <diagram name="第 1 页" id="Aq0nur3GPkczFOsMpzNv">
    <mxGraphModel dx="1007" dy="608" grid="1" gridSize="10" guides="1" tooltips="1" connect="1" arrows="1" fold="1" page="1" pageScale="1" pageWidth="1169" pageHeight="827" math="0" shadow="0">
      <root>
        <mxCell id="0" />
        <mxCell id="1" parent="0" />
        <mxCell id="iZ6yTNhBCol-Uu8qbUHb-34" value="" style="rounded=1;whiteSpace=wrap;html=1;fillColor=none;dashed=1;dashPattern=8 8;" vertex="1" parent="1">
          <mxGeometry x="550" y="460" width="410" height="240" as="geometry" />
        </mxCell>
        <mxCell id="iZ6yTNhBCol-Uu8qbUHb-1" value="DENet边缘加速推理框架" style="rounded=1;whiteSpace=wrap;html=1;" vertex="1" parent="1">
          <mxGeometry x="330" y="190" width="150" height="50" as="geometry" />
        </mxCell>
        <mxCell id="iZ6yTNhBCol-Uu8qbUHb-11" style="edgeStyle=orthogonalEdgeStyle;rounded=0;orthogonalLoop=1;jettySize=auto;html=1;exitX=0.5;exitY=1;exitDx=0;exitDy=0;entryX=0.5;entryY=0;entryDx=0;entryDy=0;" edge="1" parent="1" source="iZ6yTNhBCol-Uu8qbUHb-2" target="iZ6yTNhBCol-Uu8qbUHb-3">
          <mxGeometry relative="1" as="geometry" />
        </mxCell>
        <mxCell id="iZ6yTNhBCol-Uu8qbUHb-12" style="edgeStyle=orthogonalEdgeStyle;rounded=0;orthogonalLoop=1;jettySize=auto;html=1;exitX=0.5;exitY=1;exitDx=0;exitDy=0;entryX=0.5;entryY=0;entryDx=0;entryDy=0;" edge="1" parent="1" source="iZ6yTNhBCol-Uu8qbUHb-2" target="iZ6yTNhBCol-Uu8qbUHb-4">
          <mxGeometry relative="1" as="geometry" />
        </mxCell>
        <mxCell id="iZ6yTNhBCol-Uu8qbUHb-42" style="edgeStyle=orthogonalEdgeStyle;rounded=0;orthogonalLoop=1;jettySize=auto;html=1;exitX=0.5;exitY=0;exitDx=0;exitDy=0;" edge="1" parent="1" source="iZ6yTNhBCol-Uu8qbUHb-2" target="iZ6yTNhBCol-Uu8qbUHb-1">
          <mxGeometry relative="1" as="geometry" />
        </mxCell>
        <mxCell id="iZ6yTNhBCol-Uu8qbUHb-2" value="双维度弹性网络优化" style="rounded=1;whiteSpace=wrap;html=1;fillColor=#f8cecc;strokeColor=#b85450;" vertex="1" parent="1">
          <mxGeometry x="150" y="280" width="120" height="60" as="geometry" />
        </mxCell>
        <mxCell id="iZ6yTNhBCol-Uu8qbUHb-14" style="edgeStyle=orthogonalEdgeStyle;rounded=0;orthogonalLoop=1;jettySize=auto;html=1;exitX=0.5;exitY=1;exitDx=0;exitDy=0;entryX=0.5;entryY=0;entryDx=0;entryDy=0;" edge="1" parent="1" source="iZ6yTNhBCol-Uu8qbUHb-3" target="iZ6yTNhBCol-Uu8qbUHb-6">
          <mxGeometry relative="1" as="geometry" />
        </mxCell>
        <mxCell id="iZ6yTNhBCol-Uu8qbUHb-3" value="出口与宽度联合优化" style="rounded=1;whiteSpace=wrap;html=1;" vertex="1" parent="1">
          <mxGeometry x="70" y="384" width="120" height="60" as="geometry" />
        </mxCell>
        <mxCell id="iZ6yTNhBCol-Uu8qbUHb-4" value="高效灵敏的弹性决策" style="rounded=1;whiteSpace=wrap;html=1;" vertex="1" parent="1">
          <mxGeometry x="240" y="384" width="120" height="60" as="geometry" />
        </mxCell>
        <mxCell id="iZ6yTNhBCol-Uu8qbUHb-15" style="edgeStyle=orthogonalEdgeStyle;rounded=0;orthogonalLoop=1;jettySize=auto;html=1;exitX=0.5;exitY=0;exitDx=0;exitDy=0;entryX=0.5;entryY=1;entryDx=0;entryDy=0;" edge="1" parent="1" source="iZ6yTNhBCol-Uu8qbUHb-5" target="iZ6yTNhBCol-Uu8qbUHb-6">
          <mxGeometry relative="1" as="geometry" />
        </mxCell>
        <mxCell id="iZ6yTNhBCol-Uu8qbUHb-5" value="动态规划" style="ellipse;whiteSpace=wrap;html=1;" vertex="1" parent="1">
          <mxGeometry x="100" y="550" width="100" height="50" as="geometry" />
        </mxCell>
        <mxCell id="iZ6yTNhBCol-Uu8qbUHb-6" value="DRL" style="ellipse;whiteSpace=wrap;html=1;" vertex="1" parent="1">
          <mxGeometry x="70" y="480" width="70" height="40" as="geometry" />
        </mxCell>
        <mxCell id="iZ6yTNhBCol-Uu8qbUHb-16" style="edgeStyle=orthogonalEdgeStyle;rounded=0;orthogonalLoop=1;jettySize=auto;html=1;exitX=0.5;exitY=0;exitDx=0;exitDy=0;entryX=0.5;entryY=1;entryDx=0;entryDy=0;" edge="1" parent="1" source="iZ6yTNhBCol-Uu8qbUHb-7" target="iZ6yTNhBCol-Uu8qbUHb-4">
          <mxGeometry relative="1" as="geometry" />
        </mxCell>
        <mxCell id="iZ6yTNhBCol-Uu8qbUHb-7" value="多头指示器" style="ellipse;whiteSpace=wrap;html=1;" vertex="1" parent="1">
          <mxGeometry x="260" y="480" width="100" height="60" as="geometry" />
        </mxCell>
        <mxCell id="iZ6yTNhBCol-Uu8qbUHb-17" style="edgeStyle=orthogonalEdgeStyle;rounded=0;orthogonalLoop=1;jettySize=auto;html=1;exitX=0.5;exitY=0;exitDx=0;exitDy=0;" edge="1" parent="1" source="iZ6yTNhBCol-Uu8qbUHb-8" target="iZ6yTNhBCol-Uu8qbUHb-7">
          <mxGeometry relative="1" as="geometry" />
        </mxCell>
        <mxCell id="iZ6yTNhBCol-Uu8qbUHb-8" value="在线出口预测" style="whiteSpace=wrap;html=1;aspect=fixed;" vertex="1" parent="1">
          <mxGeometry x="240" y="570" width="80" height="80" as="geometry" />
        </mxCell>
        <mxCell id="iZ6yTNhBCol-Uu8qbUHb-39" style="edgeStyle=orthogonalEdgeStyle;rounded=0;orthogonalLoop=1;jettySize=auto;html=1;exitX=0.5;exitY=0;exitDx=0;exitDy=0;entryX=0.5;entryY=1;entryDx=0;entryDy=0;" edge="1" parent="1" source="iZ6yTNhBCol-Uu8qbUHb-9" target="iZ6yTNhBCol-Uu8qbUHb-7">
          <mxGeometry relative="1" as="geometry" />
        </mxCell>
        <mxCell id="iZ6yTNhBCol-Uu8qbUHb-9" value="宽度弹性决策" style="whiteSpace=wrap;html=1;aspect=fixed;" vertex="1" parent="1">
          <mxGeometry x="340" y="570" width="80" height="80" as="geometry" />
        </mxCell>
        <mxCell id="iZ6yTNhBCol-Uu8qbUHb-40" style="edgeStyle=orthogonalEdgeStyle;rounded=0;orthogonalLoop=1;jettySize=auto;html=1;exitX=0.5;exitY=0;exitDx=0;exitDy=0;entryX=0.5;entryY=1;entryDx=0;entryDy=0;" edge="1" parent="1" source="iZ6yTNhBCol-Uu8qbUHb-10" target="iZ6yTNhBCol-Uu8qbUHb-7">
          <mxGeometry relative="1" as="geometry" />
        </mxCell>
        <mxCell id="iZ6yTNhBCol-Uu8qbUHb-10" value="通道注意力机制" style="whiteSpace=wrap;html=1;aspect=fixed;" vertex="1" parent="1">
          <mxGeometry x="440" y="575" width="70" height="70" as="geometry" />
        </mxCell>
        <mxCell id="iZ6yTNhBCol-Uu8qbUHb-36" style="edgeStyle=orthogonalEdgeStyle;rounded=0;orthogonalLoop=1;jettySize=auto;html=1;exitX=0.5;exitY=1;exitDx=0;exitDy=0;entryX=0.5;entryY=0;entryDx=0;entryDy=0;" edge="1" parent="1" source="iZ6yTNhBCol-Uu8qbUHb-13" target="iZ6yTNhBCol-Uu8qbUHb-18">
          <mxGeometry relative="1" as="geometry" />
        </mxCell>
        <mxCell id="iZ6yTNhBCol-Uu8qbUHb-37" style="edgeStyle=orthogonalEdgeStyle;rounded=0;orthogonalLoop=1;jettySize=auto;html=1;exitX=0.5;exitY=1;exitDx=0;exitDy=0;entryX=0.583;entryY=0.083;entryDx=0;entryDy=0;entryPerimeter=0;" edge="1" parent="1" source="iZ6yTNhBCol-Uu8qbUHb-13" target="iZ6yTNhBCol-Uu8qbUHb-19">
          <mxGeometry relative="1" as="geometry" />
        </mxCell>
        <mxCell id="iZ6yTNhBCol-Uu8qbUHb-43" style="edgeStyle=orthogonalEdgeStyle;rounded=0;orthogonalLoop=1;jettySize=auto;html=1;exitX=0.5;exitY=0;exitDx=0;exitDy=0;entryX=0.5;entryY=1;entryDx=0;entryDy=0;" edge="1" parent="1" source="iZ6yTNhBCol-Uu8qbUHb-13" target="iZ6yTNhBCol-Uu8qbUHb-1">
          <mxGeometry relative="1" as="geometry" />
        </mxCell>
        <mxCell id="iZ6yTNhBCol-Uu8qbUHb-13" value="端边协同计算加速" style="rounded=1;whiteSpace=wrap;html=1;" vertex="1" parent="1">
          <mxGeometry x="500" y="280" width="120" height="60" as="geometry" />
        </mxCell>
        <mxCell id="iZ6yTNhBCol-Uu8qbUHb-18" value="模型划分" style="rounded=1;whiteSpace=wrap;html=1;" vertex="1" parent="1">
          <mxGeometry x="500" y="380" width="120" height="60" as="geometry" />
        </mxCell>
        <mxCell id="iZ6yTNhBCol-Uu8qbUHb-19" value="边缘server资源划分" style="rounded=1;whiteSpace=wrap;html=1;" vertex="1" parent="1">
          <mxGeometry x="670" y="384" width="120" height="60" as="geometry" />
        </mxCell>
        <mxCell id="iZ6yTNhBCol-Uu8qbUHb-35" style="edgeStyle=orthogonalEdgeStyle;rounded=0;orthogonalLoop=1;jettySize=auto;html=1;exitX=0.5;exitY=1;exitDx=0;exitDy=0;dashed=1;dashPattern=8 8;" edge="1" parent="1" source="iZ6yTNhBCol-Uu8qbUHb-20" target="iZ6yTNhBCol-Uu8qbUHb-28">
          <mxGeometry relative="1" as="geometry" />
        </mxCell>
        <mxCell id="iZ6yTNhBCol-Uu8qbUHb-20" value="DENet based min-cut" style="ellipse;whiteSpace=wrap;html=1;fillColor=#f8cecc;strokeColor=#b85450;" vertex="1" parent="1">
          <mxGeometry x="580" y="610" width="140" height="60" as="geometry" />
        </mxCell>
        <mxCell id="iZ6yTNhBCol-Uu8qbUHb-30" style="edgeStyle=orthogonalEdgeStyle;rounded=0;orthogonalLoop=1;jettySize=auto;html=1;exitX=0;exitY=0.5;exitDx=0;exitDy=0;entryX=1;entryY=1;entryDx=0;entryDy=0;" edge="1" parent="1" source="iZ6yTNhBCol-Uu8qbUHb-21" target="iZ6yTNhBCol-Uu8qbUHb-24">
          <mxGeometry relative="1" as="geometry" />
        </mxCell>
        <mxCell id="iZ6yTNhBCol-Uu8qbUHb-32" style="edgeStyle=orthogonalEdgeStyle;rounded=0;orthogonalLoop=1;jettySize=auto;html=1;exitX=0;exitY=0.5;exitDx=0;exitDy=0;entryX=1;entryY=1;entryDx=0;entryDy=0;" edge="1" parent="1" source="iZ6yTNhBCol-Uu8qbUHb-21" target="iZ6yTNhBCol-Uu8qbUHb-23">
          <mxGeometry relative="1" as="geometry" />
        </mxCell>
        <mxCell id="iZ6yTNhBCol-Uu8qbUHb-21" value="PPO" style="whiteSpace=wrap;html=1;aspect=fixed;" vertex="1" parent="1">
          <mxGeometry x="900" y="540" width="50" height="50" as="geometry" />
        </mxCell>
        <mxCell id="iZ6yTNhBCol-Uu8qbUHb-33" style="edgeStyle=orthogonalEdgeStyle;rounded=0;orthogonalLoop=1;jettySize=auto;html=1;exitX=0;exitY=1;exitDx=0;exitDy=0;entryX=0.875;entryY=0.5;entryDx=0;entryDy=0;entryPerimeter=0;" edge="1" parent="1" source="iZ6yTNhBCol-Uu8qbUHb-23" target="iZ6yTNhBCol-Uu8qbUHb-29">
          <mxGeometry relative="1" as="geometry" />
        </mxCell>
        <mxCell id="iZ6yTNhBCol-Uu8qbUHb-23" value="更高层的资源分配学习" style="rhombus;whiteSpace=wrap;html=1;" vertex="1" parent="1">
          <mxGeometry x="740" y="462" width="170" height="76" as="geometry" />
        </mxCell>
        <mxCell id="iZ6yTNhBCol-Uu8qbUHb-31" style="edgeStyle=orthogonalEdgeStyle;rounded=0;orthogonalLoop=1;jettySize=auto;html=1;exitX=0;exitY=1;exitDx=0;exitDy=0;entryX=1;entryY=0;entryDx=0;entryDy=0;" edge="1" parent="1" source="iZ6yTNhBCol-Uu8qbUHb-24" target="iZ6yTNhBCol-Uu8qbUHb-20">
          <mxGeometry relative="1" as="geometry" />
        </mxCell>
        <mxCell id="iZ6yTNhBCol-Uu8qbUHb-24" value="合法方案拟合" style="rhombus;whiteSpace=wrap;html=1;" vertex="1" parent="1">
          <mxGeometry x="750" y="560" width="100" height="80" as="geometry" />
        </mxCell>
        <mxCell id="iZ6yTNhBCol-Uu8qbUHb-25" value="Pytorch" style="ellipse;whiteSpace=wrap;html=1;aspect=fixed;" vertex="1" parent="1">
          <mxGeometry x="240" y="680" width="60" height="60" as="geometry" />
        </mxCell>
        <mxCell id="iZ6yTNhBCol-Uu8qbUHb-26" value="Docker " style="ellipse;whiteSpace=wrap;html=1;aspect=fixed;" vertex="1" parent="1">
          <mxGeometry x="420" y="700" width="60" height="60" as="geometry" />
        </mxCell>
        <mxCell id="iZ6yTNhBCol-Uu8qbUHb-27" value="Tensorrt" style="ellipse;whiteSpace=wrap;html=1;aspect=fixed;" vertex="1" parent="1">
          <mxGeometry x="335" y="690" width="60" height="60" as="geometry" />
        </mxCell>
        <mxCell id="iZ6yTNhBCol-Uu8qbUHb-28" value="device:nano,respbarry..." style="ellipse;whiteSpace=wrap;html=1;aspect=fixed;" vertex="1" parent="1">
          <mxGeometry x="620" y="720" width="140" height="140" as="geometry" />
        </mxCell>
        <mxCell id="iZ6yTNhBCol-Uu8qbUHb-29" value="Edge" style="ellipse;shape=cloud;whiteSpace=wrap;html=1;" vertex="1" parent="1">
          <mxGeometry x="600" y="500" width="120" height="80" as="geometry" />
        </mxCell>
        <mxCell id="iZ6yTNhBCol-Uu8qbUHb-38" value="" style="rounded=1;whiteSpace=wrap;html=1;fillColor=none;dashed=1;dashPattern=8 8;" vertex="1" parent="1">
          <mxGeometry x="230" y="460" width="270" height="200" as="geometry" />
        </mxCell>
        <mxCell id="iZ6yTNhBCol-Uu8qbUHb-45" style="edgeStyle=orthogonalEdgeStyle;rounded=0;orthogonalLoop=1;jettySize=auto;html=1;exitX=0.5;exitY=0;exitDx=0;exitDy=0;entryX=0.5;entryY=1;entryDx=0;entryDy=0;" edge="1" parent="1" source="iZ6yTNhBCol-Uu8qbUHb-44" target="iZ6yTNhBCol-Uu8qbUHb-6">
          <mxGeometry relative="1" as="geometry" />
        </mxCell>
        <mxCell id="iZ6yTNhBCol-Uu8qbUHb-44" value="statistics" style="ellipse;whiteSpace=wrap;html=1;fillColor=#dae8fc;strokeColor=#6c8ebf;" vertex="1" parent="1">
          <mxGeometry x="10" y="560" width="70" height="40" as="geometry" />
        </mxCell>
        <mxCell id="iZ6yTNhBCol-Uu8qbUHb-46" value="ZMQ" style="ellipse;whiteSpace=wrap;html=1;aspect=fixed;" vertex="1" parent="1">
          <mxGeometry x="830" y="310" width="60" height="60" as="geometry" />
        </mxCell>
        <mxCell id="iZ6yTNhBCol-Uu8qbUHb-47" value="Flask" style="ellipse;whiteSpace=wrap;html=1;aspect=fixed;" vertex="1" parent="1">
          <mxGeometry x="900" y="300" width="60" height="60" as="geometry" />
        </mxCell>
        <mxCell id="iZ6yTNhBCol-Uu8qbUHb-48" value="Vue" style="ellipse;whiteSpace=wrap;html=1;aspect=fixed;" vertex="1" parent="1">
          <mxGeometry x="910" y="370" width="60" height="60" as="geometry" />
        </mxCell>
      </root>
    </mxGraphModel>
  </diagram>
</mxfile>
